Hands-on part 3 - Data wrangling
…
Read data

pertussis_data <- read_csv(
  file = file.path(root, 
                  "data", 
                  "CISID_pertussis_10082018.csv"),
                           comment = "#", 
                           na = c("", " ")
  )

Inspect data

pertussis_data

## # A tibble: 56 x 41
##       X1 X2        `1980` `1981` `1982` `1983` `1984` `1985` `1986` `1987`
##    <int> <chr>     <chr>  <chr>  <chr>  <chr>  <chr>  <chr>  <chr>  <chr> 
##  1     2 Albania   <NA>   <NA>   <NA>   <NA>   <NA>   <NA>   <NA>   <NA>  
##  2     5 Andorra   <NA>   <NA>   <NA>   <NA>   <NA>   <NA>   <NA>   <NA>  
##  3    10 Armenia   <NA>   <NA>   <NA>   <NA>   <NA>   <NA>   <NA>   <NA>  
##  4    13 Austria   <NA>   <NA>   <NA>   <NA>   <NA>   <NA>   <NA>   <NA>  
##  5    14 Azerbaij <NA>   <NA>   <NA>   <NA>   <NA>   <NA>   <NA>   <NA>  
##  6    19 Belarus   <NA>   <NA>   <NA>   <NA>   <NA>   <NA>   <NA>   <NA>  
##  7    20 Belgium   <NA>   <NA>   <NA>   <NA>   <NA>   <NA>   <NA>   <NA>  
##  8    26 Bosnia a <NA>   <NA>   <NA>   <NA>   <NA>   <NA>   <NA>   <NA>  
##  9    31 Bulgaria  <NA>   <NA>   <NA>   <NA>   <NA>   <NA>   <NA>   <NA>  
## 10    51 Croatia   <NA>   <NA>   <NA>   <NA>   <NA>   <NA>   <NA>   <NA>  
## # ... with 46 more rows, and 31 more variables: `1988` <chr>,
## #   `1989` <chr>, `1990` <int>, `1991` <int>, `1992` <int>, `1993` <int>,
## #   `1994` <int>, `1995` <int>, `1996` <int>, `1997` <int>, `1998` <int>,
## #   `1999` <int>, `2000` <int>, `2001` <int>, `2002` <int>, `2003` <int>,
## #   `2004` <int>, `2005` <int>, `2006` <int>, `2007` <int>, `2008` <int>,
## #   `2009` <int>, `2010` <int>, `2011` <int>, `2012` <int>, `2013` <int>,
## #   `2014` <chr>, `2015` <chr>, `2016` <chr>, `2017` <chr>, `2018` <chr>
…
There are 53 countries in the dataset

There is no data for the years 1980-1989 and 2014-2018

The data is not in tidy format

Missing values are indicated with empty cells

It is not a good idea to have a column name starting with a digit; why?

** Running the R-code:

pertussis_data

## # A tibble: 56 x 41
##       X1 X2        `1980` `1981` `1982` `1983` `1984` `1985` `1986` `1987`
##    <int> <chr>     <chr>  <chr>  <chr>  <chr>  <chr>  <chr>  <chr>  <chr> 
##  1     2 Albania   <NA>   <NA>   <NA>   <NA>   <NA>   <NA>   <NA>   <NA>  
##  2     5 Andorra   <NA>   <NA>   <NA>   <NA>   <NA>   <NA>   <NA>   <NA>  
##  3    10 Armenia   <NA>   <NA>   <NA>   <NA>   <NA>   <NA>   <NA>   <NA>  
##  4    13 Austria   <NA>   <NA>   <NA>   <NA>   <NA>   <NA>   <NA>   <NA>  
##  5    14 Azerbaij <NA>   <NA>   <NA>   <NA>   <NA>   <NA>   <NA>   <NA>  
##  6    19 Belarus   <NA>   <NA>   <NA>   <NA>   <NA>   <NA>   <NA>   <NA>  
##  7    20 Belgium   <NA>   <NA>   <NA>   <NA>   <NA>   <NA>   <NA>   <NA>  
##  8    26 Bosnia a <NA>   <NA>   <NA>   <NA>   <NA>   <NA>   <NA>   <NA>  
##  9    31 Bulgaria  <NA>   <NA>   <NA>   <NA>   <NA>   <NA>   <NA>   <NA>  
## 10    51 Croatia   <NA>   <NA>   <NA>   <NA>   <NA>   <NA>   <NA>   <NA>  
## # ... with 46 more rows, and 31 more variables: `1988` <chr>,
## #   `1989` <chr>, `1990` <int>, `1991` <int>, `1992` <int>, `1993` <int>,
## #   `1994` <int>, `1995` <int>, `1996` <int>, `1997` <int>, `1998` <int>,
## #   `1999` <int>, `2000` <int>, `2001` <int>, `2002` <int>, `2003` <int>,
## #   `2004` <int>, `2005` <int>, `2006` <int>, `2007` <int>, `2008` <int>,
## #   `2009` <int>, `2010` <int>, `2011` <int>, `2012` <int>, `2013` <int>,
## #   `2014` <chr>, `2015` <chr>, `2016` <chr>, `2017` <chr>, `2018` <chr>
…
Using `

To reference names that contain 'digits' or other 'special characters'

pertussis_data_tidy <- pertussis_data %>% 
  gather(`1980`:`2018`, key = "year", 
                        value = "annual_pertussis_cases") %>%
  mutate(annual_pertussis_cases = as.numeric(annual_pertussis_cases
                                             ))
pertussis_data_tidy

## # A tibble: 2,184 x 4
##       X1 X2                     year  annual_pertussis_cases
##    <int> <chr>                  <chr>                  <dbl>
##  1     2 Albania                1980                      NA
##  2     5 Andorra                1980                      NA
##  3    10 Armenia                1980                      NA
##  4    13 Austria                1980                      NA
##  5    14 Azerbaijan             1980                      NA
##  6    19 Belarus                1980                      NA
##  7    20 Belgium                1980                      NA
##  8    26 Bosnia and Herzegovina 1980                      NA
##  9    31 Bulgaria               1980                      NA
## 10    51 Croatia                1980                      NA
## # ... with 2,174 more rows
…
Using inner_join() from {dplyr}

When joining tables you need at least one shared variable, that has the same name in all tables you want to join. We call this variable (or variables) the (primary) keys. Here we use country and year as key to join only those observations that are fully shared for both keys in both datasets (inner_join)

# pertussis_data_tidy
# gapminder
gapminder$year <- as.character(gapminder$year)

join <-   dplyr::inner_join (gapminder, 
                             pertussis_data_tidy, 
                             by = c("country", "year")) %>%
  na.omit()
join

## # A tibble: 861 x 10
##    country     year  infant_mortality life_expectancy fertility population
##    <chr>       <chr>            <dbl>           <dbl>     <dbl>      <dbl>
##  1 Albania     1990              35.1            73.3      2.97    3281453
##  2 Armenia     1990              42.5            70.1      2.54    3544695
##  3 Austria     1990               8              75.7      1.46    7706571
##  4 Azerbaijan  1990              75.5            65.6      2.97    7216503
##  5 Belarus     1990              13.5            70.5      1.89   10231983
##  6 Belgium     1990               8.3            76        1.58    9978241
##  7 Bulgaria    1990              18.4            71.4      1.77    8821111
##  8 Croatia     1990              11.2            72.6      1.67    4776374
##  9 Cyprus      1990               9.9            76.8      2.41     766611
## 10 Czech Repu 1990              12.7            71.8      1.82   10323701
## # ... with 851 more rows, and 4 more variables: gdp <dbl>,
## #   continent <fct>, region <fct>, annual_pertussis_cases <dbl>
…
Using booleans with filter()

#join$year %>% as_factor %>% levels()
#join$country %>% as_factor() %>% levels()

booleans_demo <- join %>%
  dplyr::filter(country == "Netherlands" |
         country == "Belarus" &
         year == "1990" |                 ## | is OR in R
         year == "1995" &                 ## & is AND in R   
         !annual_pertussis_cases < 100)   ## ! is NOT in R (not smaller                                                             than 100)
booleans_demo

## # A tibble: 40 x 10
##    country     year  infant_mortality life_expectancy fertility population
##    <chr>       <chr>            <dbl>           <dbl>     <dbl>      <dbl>
##  1 Belarus     1990              13.5            70.5      1.89   10231983
##  2 Netherlands 1990               6.8            77        1.62   14915139
##  3 Netherlands 1991               6.5            77.2      1.61   15019184
##  4 Netherlands 1992               6.3            77.3      1.59   15128288
##  5 Netherlands 1993               6.1            77.2      1.57   15239262
##  6 Netherlands 1994               5.8            77.5      1.57   15347792
##  7 Albania     1995              29.1            73.7      2.72    3106727
##  8 Belarus     1995              14.4            68.2      1.47   10159731
##  9 Bosnia and 1995              12.3            67        1.53    3879278
## 10 Croatia     1995               8.7            73        1.52    4616762
## # ... with 30 more rows, and 4 more variables: gdp <dbl>, continent <fct>,
## #   region <fct>, annual_pertussis_cases <dbl>
…
Sort(rank) your data ascending or descending

{dplyr} verb to use is arrange(),

In conjunction with the desc() function if you want to rank in descending order

arrange() takes one or multiple variable names for which you want to sort

Example arrange()

## ascending
join_filtered %>%
  arrange(annual_pertussis_cases)

## # A tibble: 61 x 3
##    year  country annual_pertussis_cases
##    <chr> <chr>                    <dbl>
##  1 2002  Norway                    3170
##  2 1992  Ukraine                   3363
##  3 1997  Italy                     3364
##  4 1994  Ukraine                   3374
##  5 2000  Norway                    3417
##  6 2010  Norway                    3565
##  7 1996  Spain                     3577
##  8 1998  Italy                     3632
##  9 1995  Spain                     3741
## 10 1999  Italy                     3797
## # ... with 51 more rows

## descending
join_filtered %>%
  arrange(desc(annual_pertussis_cases))

## # A tibble: 61 x 3
##    year  country     annual_pertussis_cases
##    <chr> <chr>                        <dbl>
##  1 1994  Switzerland                  26000
##  2 1995  Switzerland                  20000
##  3 1991  Italy                        19356
##  4 1990  Italy                        16992
##  5 1995  Italy                        14359
##  6 1994  Italy                        13360
##  7 1994  Sweden                       13187
##  8 1997  Switzerland                  13000
##  9 1998  Switzerland                  13000
## 10 1993  Sweden                       11542
## # ... with 51 more rows
…
Example mutate()

The annual pertussis cases is reported as an absolulte number per year. Using the population size from the gapminder dataset, we can calculate the number of pertussis cases per 100.000 people in a country with mutate()

join_new <- join %>% 
  dplyr::mutate(incidence = 
                  (annual_pertussis_cases/population)*100000) %>%
  select(incidence, 
         annual_pertussis_cases, 
         country, year) %>%
  arrange(desc(incidence))
join_new 

## # A tibble: 861 x 4
##    incidence annual_pertussis_cases country     year 
##        <dbl>                  <dbl> <chr>       <chr>
##  1      374.                  26000 Switzerland 1994 
##  2      285.                  20000 Switzerland 1995 
##  3      183.                  13000 Switzerland 1997 
##  4      183.                  13000 Switzerland 1998 
##  5      169.                   7737 Norway      2004 
##  6      163.                  11500 Switzerland 1996 
##  7      154.                  11000 Switzerland 1999 
##  8      150.                  13187 Sweden      1994 
##  9      141.                   6587 Norway      2006 
## 10      133.                  11432 Sweden      1991 
## # ... with 851 more rows
…
